%!PS-Adobe-3.0 EPSF-3.0
%%Creator: MATLAB, The MathWorks, Inc. Version 8.2.0.701 (R2013b). Operating System: Microsoft Windows 7.
%%Title: F:\Study_in_USA\post-proces-for-strain\non.eps
%%CreationDate: 08/07/2018  23:41:08
%%DocumentNeededFonts: Times-Roman
%%DocumentProcessColors: Cyan Magenta Yellow Black
%%LanguageLevel: 2
%%Pages: 1
%%BoundingBox:    87   262   507   578
%%EndComments

%%BeginProlog
% MathWorks dictionary
/MathWorks 160 dict begin
% definition operators
/bdef {bind def} bind def
/ldef {load def} bind def
/xdef {exch def} bdef
/xstore {exch store} bdef
% operator abbreviations
/c  /clip ldef
/cc /concat ldef
/cp /closepath ldef
/gr /grestore ldef
/gs /gsave ldef
/mt /moveto ldef
/np /newpath ldef
/cm /currentmatrix ldef
/sm /setmatrix ldef
/rm /rmoveto ldef
/rl /rlineto ldef
/s {show newpath} bdef
/sc {setcmykcolor} bdef
/sr /setrgbcolor ldef
/sg /setgray ldef
/w /setlinewidth ldef
/j /setlinejoin ldef
/cap /setlinecap ldef
/rc {rectclip} bdef
/rf {rectfill} bdef
% page state control
/pgsv () def
/bpage {/pgsv save def} bdef
/epage {pgsv restore} bdef
/bplot /gsave ldef
/eplot {stroke grestore} bdef
% orientation switch
/portraitMode 0 def /landscapeMode 1 def /rotateMode 2 def
% coordinate system mappings
/dpi2point 0 def
% font control
/FontSize 0 def
/FMS {/FontSize xstore findfont [FontSize 0 0 FontSize neg 0 0]
  makefont setfont} bdef
/ISOLatin1Encoding where {pop /WindowsLatin1Encoding 256 array bdef
ISOLatin1Encoding WindowsLatin1Encoding copy pop
/.notdef/.notdef/quotesinglbase/florin/quotedblbase/ellipsis/dagger
/daggerdbl/circumflex/perthousand/Scaron/guilsinglleft/OE/.notdef/.notdef
/.notdef/.notdef/quoteleft/quoteright/quotedblleft/quotedblright/bullet
/endash/emdash/tilde/trademark/scaron/guilsinglright/oe/.notdef/.notdef
/Ydieresis WindowsLatin1Encoding 128 32 getinterval astore pop}
{/WindowsLatin1Encoding StandardEncoding bdef} ifelse
/reencode {exch dup where {pop load} {pop StandardEncoding} ifelse
  exch dup 3 1 roll findfont dup length dict begin
  { 1 index /FID ne {def}{pop pop} ifelse } forall
  /Encoding exch def currentdict end definefont pop} bdef
/isroman {findfont /CharStrings get /Agrave known} bdef
/FMSR {3 1 roll 1 index dup isroman {reencode} {pop pop} ifelse
  exch FMS} bdef
/csm {1 dpi2point div -1 dpi2point div scale neg translate
 dup landscapeMode eq {pop -90 rotate}
  {rotateMode eq {90 rotate} if} ifelse} bdef
% line types: solid, dotted, dashed, dotdash
/SO { [] 0 setdash } bdef
/DO { [.5 dpi2point mul 4 dpi2point mul] 0 setdash } bdef
/DA { [6 dpi2point mul] 0 setdash } bdef
/DD { [.5 dpi2point mul 4 dpi2point mul 6 dpi2point mul 4
  dpi2point mul] 0 setdash } bdef
% macros for lines and objects
/L {lineto stroke} bdef
/MP {3 1 roll moveto 1 sub {rlineto} repeat} bdef
/AP {{rlineto} repeat} bdef
/PDlw -1 def
/W {/PDlw currentlinewidth def setlinewidth} def
/PP {closepath eofill} bdef
/DP {closepath stroke} bdef
/MR {4 -2 roll moveto dup  0 exch rlineto exch 0 rlineto
  neg 0 exch rlineto closepath} bdef
/FR {MR stroke} bdef
/PR {MR fill} bdef
/L1i {{currentfile picstr readhexstring pop} image} bdef
/tMatrix matrix def
/MakeOval {newpath tMatrix currentmatrix pop translate scale
0 0 1 0 360 arc tMatrix setmatrix} bdef
/FO {MakeOval stroke} bdef
/PO {MakeOval fill} bdef
/PD {currentlinewidth 2 div 0 360 arc fill
   PDlw -1 eq not {PDlw w /PDlw -1 def} if} def
/FA {newpath tMatrix currentmatrix pop translate scale
  0 0 1 5 -2 roll arc tMatrix setmatrix stroke} bdef
/PA {newpath tMatrix currentmatrix pop	translate 0 0 moveto scale
  0 0 1 5 -2 roll arc closepath tMatrix setmatrix fill} bdef
/FAn {newpath tMatrix currentmatrix pop translate scale
  0 0 1 5 -2 roll arcn tMatrix setmatrix stroke} bdef
/PAn {newpath tMatrix currentmatrix pop translate 0 0 moveto scale
  0 0 1 5 -2 roll arcn closepath tMatrix setmatrix fill} bdef
/vradius 0 def /hradius 0 def /lry 0 def
/lrx 0 def /uly 0 def /ulx 0 def /rad 0 def
/MRR {/vradius xdef /hradius xdef /lry xdef /lrx xdef /uly xdef
  /ulx xdef newpath tMatrix currentmatrix pop ulx hradius add uly
  vradius add translate hradius vradius scale 0 0 1 180 270 arc 
  tMatrix setmatrix lrx hradius sub uly vradius add translate
  hradius vradius scale 0 0 1 270 360 arc tMatrix setmatrix
  lrx hradius sub lry vradius sub translate hradius vradius scale
  0 0 1 0 90 arc tMatrix setmatrix ulx hradius add lry vradius sub
  translate hradius vradius scale 0 0 1 90 180 arc tMatrix setmatrix
  closepath} bdef
/FRR {MRR stroke } bdef
/PRR {MRR fill } bdef
/MlrRR {/lry xdef /lrx xdef /uly xdef /ulx xdef /rad lry uly sub 2 div def
  newpath tMatrix currentmatrix pop ulx rad add uly rad add translate
  rad rad scale 0 0 1 90 270 arc tMatrix setmatrix lrx rad sub lry rad
  sub translate rad rad scale 0 0 1 270 90 arc tMatrix setmatrix
  closepath} bdef
/FlrRR {MlrRR stroke } bdef
/PlrRR {MlrRR fill } bdef
/MtbRR {/lry xdef /lrx xdef /uly xdef /ulx xdef /rad lrx ulx sub 2 div def
  newpath tMatrix currentmatrix pop ulx rad add uly rad add translate
  rad rad scale 0 0 1 180 360 arc tMatrix setmatrix lrx rad sub lry rad
  sub translate rad rad scale 0 0 1 0 180 arc tMatrix setmatrix
  closepath} bdef
/FtbRR {MtbRR stroke } bdef
/PtbRR {MtbRR fill } bdef
/stri 6 array def /dtri 6 array def
/smat 6 array def /dmat 6 array def
/tmat1 6 array def /tmat2 6 array def /dif 3 array def
/asub {/ind2 exch def /ind1 exch def dup dup
  ind1 get exch ind2 get sub exch } bdef
/tri_to_matrix {
  2 0 asub 3 1 asub 4 0 asub 5 1 asub
  dup 0 get exch 1 get 7 -1 roll astore } bdef
/compute_transform {
  dmat dtri tri_to_matrix tmat1 invertmatrix 
  smat stri tri_to_matrix tmat2 concatmatrix } bdef
/ds {stri astore pop} bdef
/dt {dtri astore pop} bdef
/db {2 copy /cols xdef /rows xdef mul dup 3 mul string
  currentfile 
  3 index 0 eq {/ASCIIHexDecode filter}
  {/ASCII85Decode filter 3 index 2 eq {/RunLengthDecode filter} if }
  ifelse exch readstring pop
  dup 0 3 index getinterval /rbmap xdef
  dup 2 index dup getinterval /gbmap xdef
  1 index dup 2 mul exch getinterval /bbmap xdef pop pop}bdef
/it {gs np dtri aload pop moveto lineto lineto cp c
  cols rows 8 compute_transform 
  rbmap gbmap bbmap true 3 colorimage gr}bdef
/il {newpath moveto lineto stroke}bdef
currentdict end def
%%EndProlog

%%BeginSetup
MathWorks begin

0 cap

end
%%EndSetup

%%Page: 1 1
%%BeginPageSetup
%%PageBoundingBox:    87   262   507   578
MathWorks begin
bpage
%%EndPageSetup

%%BeginObject: obj1
bplot

/dpi2point 12 def
portraitMode 1044 6936 csm

    0     0  5045  3782 rc
88 dict begin %Colortable dictionary
/c0 { 0.000000 0.000000 0.000000 sr} bdef
/c1 { 1.000000 1.000000 1.000000 sr} bdef
/c2 { 0.900000 0.000000 0.000000 sr} bdef
/c3 { 0.000000 0.820000 0.000000 sr} bdef
/c4 { 0.000000 0.000000 0.800000 sr} bdef
/c5 { 0.910000 0.820000 0.320000 sr} bdef
/c6 { 1.000000 0.260000 0.820000 sr} bdef
/c7 { 0.000000 0.820000 0.820000 sr} bdef
c0
1 j
1 sg
   0    0 5046 3783 rf
6 w
0 3042 3910 0 0 -3042 656 3326 4 MP
PP
-3910 0 0 3042 3910 0 0 -3042 656 3326 5 MP stroke
4 w
DO
0 sg
 656 3326 mt  656  284 L
 656  284 mt  656  284 L
1438 3326 mt 1438  284 L
1438  284 mt 1438  284 L
2220 3326 mt 2220  284 L
2220  284 mt 2220  284 L
3002 3326 mt 3002  284 L
3002  284 mt 3002  284 L
3783 3326 mt 3783  284 L
3783  284 mt 3783  284 L
4566 3326 mt 4566  284 L
4566  284 mt 4566  284 L
 656 3326 mt 4566 3326 L
4566 3326 mt 4566 3326 L
 656 2717 mt 4566 2717 L
4566 2717 mt 4566 2717 L
 656 2109 mt 4566 2109 L
4566 2109 mt 4566 2109 L
 656 1500 mt 4566 1500 L
4566 1500 mt 4566 1500 L
 656  892 mt 4566  892 L
4566  892 mt 4566  892 L
 656  284 mt 4566  284 L
4566  284 mt 4566  284 L
SO
6 w
 656  284 mt 4566  284 L
 656 3326 mt 4566 3326 L
4566 3326 mt 4566  284 L
 656 3326 mt  656  284 L
 656 3326 mt 4566 3326 L
 656 3326 mt  656  284 L
 656 3326 mt  656 3286 L
 656  284 mt  656  323 L
%%IncludeResource: font Times-Roman
/Times-Roman /WindowsLatin1Encoding 192 FMSR

 608 3532 mt 
(0) s
1438 3326 mt 1438 3286 L
1438  284 mt 1438  323 L
1270 3532 mt 
(0.02) s
2220 3326 mt 2220 3286 L
2220  284 mt 2220  323 L
2052 3532 mt 
(0.04) s
3002 3326 mt 3002 3286 L
3002  284 mt 3002  323 L
2834 3532 mt 
(0.06) s
3783 3326 mt 3783 3286 L
3783  284 mt 3783  323 L
3615 3532 mt 
(0.08) s
4566 3326 mt 4566 3286 L
4566  284 mt 4566  323 L
4446 3532 mt 
(0.1) s
 656 3326 mt  695 3326 L
4566 3326 mt 4526 3326 L
 525 3394 mt 
(0) s
 656 2717 mt  695 2717 L
4566 2717 mt 4526 2717 L
 381 2785 mt 
(0.1) s
 656 2109 mt  695 2109 L
4566 2109 mt 4526 2109 L
 381 2177 mt 
(0.2) s
 656 1500 mt  695 1500 L
4566 1500 mt 4526 1500 L
 381 1568 mt 
(0.3) s
 656  892 mt  695  892 L
4566  892 mt 4526  892 L
 381  960 mt 
(0.4) s
 656  284 mt  695  284 L
4566  284 mt 4526  284 L
 381  352 mt 
(0.5) s
 656  284 mt 4566  284 L
 656 3326 mt 4566 3326 L
4566 3326 mt 4566  284 L
 656 3326 mt  656  284 L
gs 656 284 3911 3043 rc
0.859375 sg
0 1 161 0 0 -1 575 3326 4 MP
PP
0.5 sg
-161 0 0 1 161 0 0 -1 575 3326 5 MP stroke
0.859375 sg
0 46 161 0 0 -46 898 3326 4 MP
PP
0.5 sg
-161 0 0 46 161 0 0 -46 898 3326 5 MP stroke
0.859375 sg
0 313 161 0 0 -313 1221 3326 4 MP
PP
0.5 sg
-161 0 0 313 161 0 0 -313 1221 3326 5 MP stroke
0.859375 sg
0 1057 161 0 0 -1057 1544 3326 4 MP
PP
0.5 sg
-161 0 0 1057 161 0 0 -1057 1544 3326 5 MP stroke
0.859375 sg
0 2300 161 0 0 -2300 1867 3326 4 MP
PP
0.5 sg
-161 0 0 2300 161 0 0 -2300 1867 3326 5 MP stroke
0.859375 sg
0 1895 161 0 0 -1895 2190 3326 4 MP
PP
0.5 sg
-161 0 0 1895 161 0 0 -1895 2190 3326 5 MP stroke
0.859375 sg
0 435 161 0 0 -435 2513 3326 4 MP
PP
0.5 sg
-161 0 0 435 161 0 0 -435 2513 3326 5 MP stroke
0.859375 sg
0 38 161 0 0 -38 2836 3326 4 MP
PP
0.5 sg
-161 0 0 38 161 0 0 -38 2836 3326 5 MP stroke
0.859375 sg
0 4 162 0 0 -4 3158 3326 4 MP
PP
0.5 sg
-162 0 0 4 162 0 0 -4 3158 3326 5 MP stroke
0.859375 sg
0 1 162 0 0 -1 3481 3326 4 MP
PP
0.5 sg
-162 0 0 1 162 0 0 -1 3481 3326 5 MP stroke
0.859375 sg
0 1 162 0 0 -1 3804 3326 4 MP
PP
0.5 sg
-162 0 0 1 162 0 0 -1 3804 3326 5 MP stroke
0 sg
3910 0 656 3326 2 MP stroke
/c8 { 0.000000 1.000000 0.000000 sr} bdef
c8
323 0 323 0 323 0 323 42 323 2056 323 630 323 -1804 323 -672 
323 -210 322 -42 656 3326 11 MP stroke
gr

c8
 620 3326 mt  692 3326 L
 656 3290 mt  656 3362 L
 942 3284 mt 1014 3284 L
 978 3248 mt  978 3320 L
1265 3074 mt 1337 3074 L
1301 3038 mt 1301 3110 L
1588 2402 mt 1660 2402 L
1624 2366 mt 1624 2438 L
1911  598 mt 1983  598 L
1947  562 mt 1947  634 L
2234 1228 mt 2306 1228 L
2270 1192 mt 2270 1264 L
2557 3284 mt 2629 3284 L
2593 3248 mt 2593 3320 L
2880 3326 mt 2952 3326 L
2916 3290 mt 2916 3362 L
3203 3326 mt 3275 3326 L
3239 3290 mt 3239 3362 L
3526 3326 mt 3598 3326 L
3562 3290 mt 3562 3362 L
3849 3326 mt 3921 3326 L
3885 3290 mt 3885 3362 L
 631 3301 mt  681 3351 L
 681 3301 mt  631 3351 L
 953 3259 mt 1003 3309 L
1003 3259 mt  953 3309 L
1276 3049 mt 1326 3099 L
1326 3049 mt 1276 3099 L
1599 2377 mt 1649 2427 L
1649 2377 mt 1599 2427 L
1922  573 mt 1972  623 L
1972  573 mt 1922  623 L
2245 1203 mt 2295 1253 L
2295 1203 mt 2245 1253 L
2568 3259 mt 2618 3309 L
2618 3259 mt 2568 3309 L
2891 3301 mt 2941 3351 L
2941 3301 mt 2891 3351 L
3214 3301 mt 3264 3351 L
3264 3301 mt 3214 3351 L
3537 3301 mt 3587 3351 L
3587 3301 mt 3537 3351 L
3860 3301 mt 3910 3351 L
3910 3301 mt 3860 3351 L
gs 656 284 3911 3043 rc
DA
/c9 { 0.000000 0.000000 1.000000 sr} bdef
c9
323 0 323 3 323 34 323 397 323 1460 323 405 323 -1243 323 -744 
323 -267 322 -45 656 3325 11 MP stroke
gr

c9
DA
SO
0 j
0 -58 -58 0 0 58 58 0 627 3296 5 MP
DP
0 -58 -58 0 0 58 58 0 949 3251 5 MP
DP
0 -58 -58 0 0 58 58 0 1272 2984 5 MP
DP
0 -58 -58 0 0 58 58 0 1595 2240 5 MP
DP
0 -58 -58 0 0 58 58 0 1918 997 5 MP
DP
0 -58 -58 0 0 58 58 0 2241 1402 5 MP
DP
0 -58 -58 0 0 58 58 0 2564 2862 5 MP
DP
0 -58 -58 0 0 58 58 0 2887 3259 5 MP
DP
0 -58 -58 0 0 58 58 0 3210 3293 5 MP
DP
0 -58 -58 0 0 58 58 0 3533 3296 5 MP
DP
0 -58 -58 0 0 58 58 0 3856 3296 5 MP
DP
DA
gs 656 284 3911 3043 rc
gr

0 sg
%%IncludeResource: font Times-Roman
/Times-Roman /WindowsLatin1Encoding 216 FMSR

2083 3733 mt 
(Strain Level) s
 279 2779 mt  -90 rotate
(Distribution Possiblity) s
90 rotate
%%IncludeResource: font Times-Roman
/Times-Roman /WindowsLatin1Encoding 120 FMSR

 641 3368 mt 
( ) s
4552  325 mt 
( ) s
SO
1 sg
0 484 964 0 0 -484 3543 829 4 MP
PP
-964 0 0 484 964 0 0 -484 3543 829 5 MP stroke
4 w
DO
SO
6 w
0 sg
3543  345 mt 4507  345 L
3543  829 mt 4507  829 L
4507  829 mt 4507  345 L
3543  829 mt 3543  345 L
3543  829 mt 4507  829 L
3543  829 mt 3543  345 L
3543  345 mt 4507  345 L
3543  829 mt 4507  829 L
4507  829 mt 4507  345 L
3543  829 mt 3543  345 L
%%IncludeResource: font Times-Roman
/Times-Roman /WindowsLatin1Encoding 192 FMSR

3999  542 mt 
(EHM) s
gs 3543 345 965 485 rc
0.859375 sg
-350 0 0 169 350 0 0 -169 3613 559 5 MP
PP
0.5 sg
0 0 -350 0 0 169 350 0 0 -169 3613 559 6 MP stroke
gr

0.5 sg
0 sg
3999  765 mt 
(CPFE) s
gs 3543 345 965 485 rc
c8
350 0 3613 698 2 MP stroke
gs 3715 625 147 147 rc
3752  698 mt 3824  698 L
3788  662 mt 3788  734 L
3763  673 mt 3813  723 L
3813  673 mt 3763  723 L
gr

gr

c8

end %%Color Dict

eplot
%%EndObject

epage
end

showpage

%%Trailer
%%EOF
