\relax 
\citation{Pilchak2013,Anahid2013}
\citation{Sinha2006,Kirane2008,Pilchak2011,Ozturk2016,Zhang2016b,Phan2017,Ozturk2017,Zheng2018,Smith2018}
\citation{Venkatramani2007,Venkataramani2008,Zheng2016}
\citation{Szczepanski2008}
\citation{Pilchak2011}
\citation{Pilchak2013,Sinha2017}
\citation{Pilchak2011,Pilchak2013}
\citation{Sinha2017}
\citation{Bantounas2010}
\@writefile{toc}{\contentsline {section}{\numberline {1}Introduction}{2}}
\citation{Kartal2014}
\citation{Kirane2008,Kirane2009}
\citation{Anahid2013}
\citation{Przybyla2011}
\citation{Anahid2013}
\citation{Anahid2011,Anahid2013}
\citation{Kirane2008,Kirane2009}
\citation{Anahid2011}
\citation{Ozturk2017}
\citation{Mcdowell2010}
\citation{Przybyla2011}
\citation{Feyel:2000a,Oskay2007}
\citation{Oskay:2012a,Oskay:2013b,Zhang:2015a,Zhang:2016a,Zhang:2017a}
\citation{E:2003a,Masud:2011a}
\citation{Efendiev:2009a}
\citation{Mosby:2016a}
\citation{Shanthraj2015}
\citation{VanHoutte2005}
\citation{Knezevic2013,Pandey2015,Zecevic2015}
\citation{Lebensohn2012a}
\citation{Michel2004a}
\citation{Zhang2015}
\citation{Zhang2017}
\citation{Anahid2013}
\citation{Zhang2015,Zhang2017}
\@writefile{toc}{\contentsline {section}{\numberline {2}Eigenstrain-based reduced order homogenization for polycrystalline plasticity}{5}}
\@writefile{toc}{\contentsline {subsection}{\numberline {2.1}EHM framework for crystal plasticity}{5}}
\newlabel{MacroScaleEquilibrium}{{1}{5}}
\citation{Zhang2015}
\@writefile{lof}{\contentsline {figure}{\numberline {1}{\ignorespaces \relax \fontsize  {10.95}{13.6}\selectfont  \abovedisplayskip 11\p@ plus3\p@ minus6\p@ \abovedisplayshortskip \z@ plus3\p@ \belowdisplayshortskip 6.5\p@ plus3.5\p@ minus3\p@ \def \leftmargin \leftmargini \parsep 5\p@ plus2.5\p@ minus\p@ \topsep 10\p@ plus4\p@ minus6\p@ \itemsep 5\p@ plus2.5\p@ minus\p@ {\leftmargin \leftmargini \topsep 9\p@ plus3\p@ minus5\p@ \parsep 4.5\p@ plus2\p@ minus\p@ \itemsep \parsep }\belowdisplayskip \abovedisplayskip A two-scale problem: macro- and microscale structures.\relax }}{6}}
\providecommand*\caption@xref[2]{\@setref\relax\@undefined{#1}}
\newlabel{FIGProblemSetting}{{1}{6}}
\newlabel{DisBC}{{2}{6}}
\newlabel{ForceBC}{{3}{6}}
\newlabel{ROMConsti}{{4}{6}}
\citation{Castelluccio2016}
\citation{Huang2013}
\citation{Suri1999,Savage2004}
\citation{Joseph2018}
\citation{Hu2016,Liu2018}
\newlabel{inelasticstrainrate}{{6}{7}}
\@writefile{toc}{\contentsline {subsection}{\numberline {2.2}Dislocation density based crystal plasticity model}{7}}
\citation{Beyerlein2008,Knezevic2013a}
\citation{Beyerlein2008}
\citation{Madec2002}
\citation{Naka1988,Viguier1995,Fan2011}
\citation{Knezevic2013}
\citation{Kitayama2013,Zecevic2015}
\newlabel{ShearRate2}{{7}{8}}
\newlabel{SchmidLaw1}{{8}{8}}
\newlabel{StrengthDecom}{{9}{8}}
\newlabel{Sfor}{{10}{8}}
\newlabel{Sdeb}{{11}{8}}
\citation{Follansbee1989,Viguier1995,Naka1988}
\citation{Mecking1981}
\citation{Kitayama2013}
\citation{Beyerlein2008}
\citation{Kitayama2013}
\newlabel{Strain_rate_2}{{14}{9}}
\citation{Zecevic2015}
\citation{Appel1997,Williams1962}
\@writefile{lof}{\contentsline {figure}{\numberline {2}{\ignorespaces \relax \fontsize  {10.95}{13.6}\selectfont  \abovedisplayskip 11\p@ plus3\p@ minus6\p@ \abovedisplayshortskip \z@ plus3\p@ \belowdisplayshortskip 6.5\p@ plus3.5\p@ minus3\p@ \def \leftmargin \leftmargini \parsep 5\p@ plus2.5\p@ minus\p@ \topsep 10\p@ plus4\p@ minus6\p@ \itemsep 5\p@ plus2.5\p@ minus\p@ {\leftmargin \leftmargini \topsep 9\p@ plus3\p@ minus5\p@ \parsep 4.5\p@ plus2\p@ minus\p@ \itemsep \parsep }\belowdisplayskip \abovedisplayskip Slip orientations for the reversible dislocation density evolution.\relax }}{10}}
\newlabel{DislocationMobile}{{2}{10}}
\newlabel{rho_deb}{{18}{10}}
\citation{Zhang2015,Zhang2017}
\citation{Kelley1968}
\citation{Ardeljan2014}
\@writefile{toc}{\contentsline {section}{\numberline {3}Model verification}{11}}
\@writefile{toc}{\contentsline {subsection}{\numberline {3.1}Model verification for HCP/BCC polycrystal}{11}}
\@writefile{lof}{\contentsline {figure}{\numberline {3}{\ignorespaces \relax \fontsize  {10.95}{13.6}\selectfont  \abovedisplayskip 11\p@ plus3\p@ minus6\p@ \abovedisplayshortskip \z@ plus3\p@ \belowdisplayshortskip 6.5\p@ plus3.5\p@ minus3\p@ \def \leftmargin \leftmargini \parsep 5\p@ plus2.5\p@ minus\p@ \topsep 10\p@ plus4\p@ minus6\p@ \itemsep 5\p@ plus2.5\p@ minus\p@ {\leftmargin \leftmargini \topsep 9\p@ plus3\p@ minus5\p@ \parsep 4.5\p@ plus2\p@ minus\p@ \itemsep \parsep }\belowdisplayskip \abovedisplayskip Slip systems in HCP and BCC lattices\relax }}{12}}
\newlabel{SlipSYS}{{3}{12}}
\@writefile{lot}{\contentsline {table}{\numberline {1}{\ignorespaces \relax \fontsize  {10.95}{13.6}\selectfont  \abovedisplayskip 11\p@ plus3\p@ minus6\p@ \abovedisplayshortskip \z@ plus3\p@ \belowdisplayshortskip 6.5\p@ plus3.5\p@ minus3\p@ \def \leftmargin \leftmargini \topsep 9\p@ plus3\p@ minus5\p@ \parsep 4.5\p@ plus2\p@ minus\p@ \itemsep \parsep {\leftmargin \leftmargini \topsep 9\p@ plus3\p@ minus5\p@ \parsep 4.5\p@ plus2\p@ minus\p@ \itemsep \parsep }\belowdisplayskip \abovedisplayskip Model parameters for the HCP and BCC crystals used in verification studies\relax }}{12}}
\newlabel{CpfePara}{{1}{12}}
\@writefile{lof}{\contentsline {figure}{\numberline {4}{\ignorespaces \relax \fontsize  {10.95}{13.6}\selectfont  \abovedisplayskip 11\p@ plus3\p@ minus6\p@ \abovedisplayshortskip \z@ plus3\p@ \belowdisplayshortskip 6.5\p@ plus3.5\p@ minus3\p@ \def \leftmargin \leftmargini \parsep 5\p@ plus2.5\p@ minus\p@ \topsep 10\p@ plus4\p@ minus6\p@ \itemsep 5\p@ plus2.5\p@ minus\p@ {\leftmargin \leftmargini \topsep 9\p@ plus3\p@ minus5\p@ \parsep 4.5\p@ plus2\p@ minus\p@ \itemsep \parsep }\belowdisplayskip \abovedisplayskip Sample microstructure used in verification. (a) Discretization used in the CPFE simulations; (b) Grain used in the verification of the DD-EHM simulations.\relax }}{13}}
\newlabel{DDconfiguration}{{4}{13}}
\@writefile{lof}{\contentsline {figure}{\numberline {5}{\ignorespaces \relax \fontsize  {10.95}{13.6}\selectfont  \abovedisplayskip 11\p@ plus3\p@ minus6\p@ \abovedisplayshortskip \z@ plus3\p@ \belowdisplayshortskip 6.5\p@ plus3.5\p@ minus3\p@ \def \leftmargin \leftmargini \parsep 5\p@ plus2.5\p@ minus\p@ \topsep 10\p@ plus4\p@ minus6\p@ \itemsep 5\p@ plus2.5\p@ minus\p@ {\leftmargin \leftmargini \topsep 9\p@ plus3\p@ minus5\p@ \parsep 4.5\p@ plus2\p@ minus\p@ \itemsep \parsep }\belowdisplayskip \abovedisplayskip Overall stress-strain curves for the HCP polycrystal subjected to: (a) uniaxial tension; (b) pure fatigue cycle; (c) dwell fatigue cycle; (d) biaxial loading.\relax }}{13}}
\newlabel{Load_condition}{{5}{13}}
\@writefile{lof}{\contentsline {figure}{\numberline {6}{\ignorespaces \relax \fontsize  {10.95}{13.6}\selectfont  \abovedisplayskip 11\p@ plus3\p@ minus6\p@ \abovedisplayshortskip \z@ plus3\p@ \belowdisplayshortskip 6.5\p@ plus3.5\p@ minus3\p@ \def \leftmargin \leftmargini \parsep 5\p@ plus2.5\p@ minus\p@ \topsep 10\p@ plus4\p@ minus6\p@ \itemsep 5\p@ plus2.5\p@ minus\p@ {\leftmargin \leftmargini \topsep 9\p@ plus3\p@ minus5\p@ \parsep 4.5\p@ plus2\p@ minus\p@ \itemsep \parsep }\belowdisplayskip \abovedisplayskip Overall stress-strain curves for the HCP polycrystal subjected to: (a) uniaxial tension; (b) pure fatigue cycle\relax }}{14}}
\newlabel{Ni-Fatigue-Uni}{{6}{14}}
\@writefile{lof}{\contentsline {figure}{\numberline {7}{\ignorespaces \relax \fontsize  {10.95}{13.6}\selectfont  \abovedisplayskip 11\p@ plus3\p@ minus6\p@ \abovedisplayshortskip \z@ plus3\p@ \belowdisplayshortskip 6.5\p@ plus3.5\p@ minus3\p@ \def \leftmargin \leftmargini \parsep 5\p@ plus2.5\p@ minus\p@ \topsep 10\p@ plus4\p@ minus6\p@ \itemsep 5\p@ plus2.5\p@ minus\p@ {\leftmargin \leftmargini \topsep 9\p@ plus3\p@ minus5\p@ \parsep 4.5\p@ plus2\p@ minus\p@ \itemsep \parsep }\belowdisplayskip \abovedisplayskip Local stress distributions for the HCP polycrystal subjected to: (a) uniaxial tension; (b) pure fatigue cycle; (c) dwell fatigue cycle; (d) biaxial loading.\relax }}{15}}
\newlabel{EHM_load_stress_dis}{{7}{15}}
\@writefile{lof}{\contentsline {figure}{\numberline {8}{\ignorespaces \relax \fontsize  {10.95}{13.6}\selectfont  \abovedisplayskip 11\p@ plus3\p@ minus6\p@ \abovedisplayshortskip \z@ plus3\p@ \belowdisplayshortskip 6.5\p@ plus3.5\p@ minus3\p@ \def \leftmargin \leftmargini \parsep 5\p@ plus2.5\p@ minus\p@ \topsep 10\p@ plus4\p@ minus6\p@ \itemsep 5\p@ plus2.5\p@ minus\p@ {\leftmargin \leftmargini \topsep 9\p@ plus3\p@ minus5\p@ \parsep 4.5\p@ plus2\p@ minus\p@ \itemsep \parsep }\belowdisplayskip \abovedisplayskip Local stress contours for the HCP microstructure using: (a) DD-EHM model; (b) CPFE model.\relax }}{15}}
\newlabel{EHM_load_loca}{{8}{15}}
\citation{Zhang2015}
\@writefile{lof}{\contentsline {figure}{\numberline {9}{\ignorespaces \relax \fontsize  {10.95}{13.6}\selectfont  \abovedisplayskip 11\p@ plus3\p@ minus6\p@ \abovedisplayshortskip \z@ plus3\p@ \belowdisplayshortskip 6.5\p@ plus3.5\p@ minus3\p@ \def \leftmargin \leftmargini \parsep 5\p@ plus2.5\p@ minus\p@ \topsep 10\p@ plus4\p@ minus6\p@ \itemsep 5\p@ plus2.5\p@ minus\p@ {\leftmargin \leftmargini \topsep 9\p@ plus3\p@ minus5\p@ \parsep 4.5\p@ plus2\p@ minus\p@ \itemsep \parsep }\belowdisplayskip \abovedisplayskip Stress-strain curves comparison of 5 random grains chosen in the (a) HCP and (b) BCC polycrystals under uniaxial tension.\relax }}{16}}
\newlabel{DDcurves}{{9}{16}}
\@writefile{toc}{\contentsline {subsection}{\numberline {3.2}Hierarchical model improvement}{16}}
\@writefile{lof}{\contentsline {figure}{\numberline {10}{\ignorespaces \relax \fontsize  {10.95}{13.6}\selectfont  \abovedisplayskip 11\p@ plus3\p@ minus6\p@ \abovedisplayshortskip \z@ plus3\p@ \belowdisplayshortskip 6.5\p@ plus3.5\p@ minus3\p@ \def \leftmargin \leftmargini \parsep 5\p@ plus2.5\p@ minus\p@ \topsep 10\p@ plus4\p@ minus6\p@ \itemsep 5\p@ plus2.5\p@ minus\p@ {\leftmargin \leftmargini \topsep 9\p@ plus3\p@ minus5\p@ \parsep 4.5\p@ plus2\p@ minus\p@ \itemsep \parsep }\belowdisplayskip \abovedisplayskip Partitioning schemes: (a) simple grain partition (13 parts); (b) triangular prism partition (36 parts); (c) surface grain contact partition (adjacent grain; 68 parts); (d) triple junction partition (92 parts); (e) triangular prism partition with double precision (136 parts).\relax }}{17}}
\newlabel{EHMpartition}{{10}{17}}
\citation{Pilchak2014,Pilchak2016,Ma2018}
\citation{Gockel2016}
\citation{Gockel2016}
\citation{Satko2016}
\citation{Deka2006,Venkatramani2007}
\@writefile{lof}{\contentsline {figure}{\numberline {11}{\ignorespaces \relax \fontsize  {10.95}{13.6}\selectfont  \abovedisplayskip 11\p@ plus3\p@ minus6\p@ \abovedisplayshortskip \z@ plus3\p@ \belowdisplayshortskip 6.5\p@ plus3.5\p@ minus3\p@ \def \leftmargin \leftmargini \parsep 5\p@ plus2.5\p@ minus\p@ \topsep 10\p@ plus4\p@ minus6\p@ \itemsep 5\p@ plus2.5\p@ minus\p@ {\leftmargin \leftmargini \topsep 9\p@ plus3\p@ minus5\p@ \parsep 4.5\p@ plus2\p@ minus\p@ \itemsep \parsep }\belowdisplayskip \abovedisplayskip DD-EHM model refinement study: (a) Overall stress vs. strain curves; (b) Local stress distributions\relax }}{18}}
\newlabel{EHMpartition2}{{11}{18}}
\@writefile{lof}{\contentsline {figure}{\numberline {12}{\ignorespaces \relax \fontsize  {10.95}{13.6}\selectfont  \abovedisplayskip 11\p@ plus3\p@ minus6\p@ \abovedisplayshortskip \z@ plus3\p@ \belowdisplayshortskip 6.5\p@ plus3.5\p@ minus3\p@ \def \leftmargin \leftmargini \parsep 5\p@ plus2.5\p@ minus\p@ \topsep 10\p@ plus4\p@ minus6\p@ \itemsep 5\p@ plus2.5\p@ minus\p@ {\leftmargin \leftmargini \topsep 9\p@ plus3\p@ minus5\p@ \parsep 4.5\p@ plus2\p@ minus\p@ \itemsep \parsep }\belowdisplayskip \abovedisplayskip Local stress contours from: (a) DD-EHM grain partition; (b) DD-EHM triangular prism partition; (c) DD-EHM surface grain interaction pattern; (d) DD-EHM triple junction partition; (e) DD-EHM triangular partition with double precision; (f) CPFE fully resolved mesh.\relax }}{19}}
\newlabel{EHMpartition4}{{12}{19}}
\@writefile{lof}{\contentsline {figure}{\numberline {13}{\ignorespaces \relax \fontsize  {10.95}{13.6}\selectfont  \abovedisplayskip 11\p@ plus3\p@ minus6\p@ \abovedisplayshortskip \z@ plus3\p@ \belowdisplayshortskip 6.5\p@ plus3.5\p@ minus3\p@ \def \leftmargin \leftmargini \parsep 5\p@ plus2.5\p@ minus\p@ \topsep 10\p@ plus4\p@ minus6\p@ \itemsep 5\p@ plus2.5\p@ minus\p@ {\leftmargin \leftmargini \topsep 9\p@ plus3\p@ minus5\p@ \parsep 4.5\p@ plus2\p@ minus\p@ \itemsep \parsep }\belowdisplayskip \abovedisplayskip Statistical error analysis of overall stress prediction using all 50 sets of grain orientations: (a) error scattering pattern; (b) the stress error as a function of the DD-EHM model order.\relax }}{19}}
\newlabel{EHMpartition3}{{13}{19}}
\citation{Gockel2016}
\citation{Deka2006}
\citation{Ghosh2013,Dunne2007a,Zhang2016}
\citation{Gockel2016}
\citation{Gockel2016}
\citation{Deka2006,Ghosh2011,Ghosh2013,Ozturk2016,Venkatramani2007}
\citation{Gockel2016}
\@writefile{lof}{\contentsline {figure}{\numberline {14}{\ignorespaces \relax \fontsize  {10.95}{13.6}\selectfont  \abovedisplayskip 11\p@ plus3\p@ minus6\p@ \abovedisplayshortskip \z@ plus3\p@ \belowdisplayshortskip 6.5\p@ plus3.5\p@ minus3\p@ \def \leftmargin \leftmargini \parsep 5\p@ plus2.5\p@ minus\p@ \topsep 10\p@ plus4\p@ minus6\p@ \itemsep 5\p@ plus2.5\p@ minus\p@ {\leftmargin \leftmargini \topsep 9\p@ plus3\p@ minus5\p@ \parsep 4.5\p@ plus2\p@ minus\p@ \itemsep \parsep }\belowdisplayskip \abovedisplayskip (a) Orientation distribution in pole figure; (b) Misorientation distribution for Ti-6242S data from\nobreakspace  {}\citet  {Gockel2016}.\relax }}{20}}
\newlabel{PoleFig}{{14}{20}}
\citation{Gockel2016}
\citation{Gockel2016}
\@writefile{lof}{\contentsline {figure}{\numberline {15}{\ignorespaces \relax \fontsize  {10.95}{13.6}\selectfont  \abovedisplayskip 11\p@ plus3\p@ minus6\p@ \abovedisplayshortskip \z@ plus3\p@ \belowdisplayshortskip 6.5\p@ plus3.5\p@ minus3\p@ \def \leftmargin \leftmargini \parsep 5\p@ plus2.5\p@ minus\p@ \topsep 10\p@ plus4\p@ minus6\p@ \itemsep 5\p@ plus2.5\p@ minus\p@ {\leftmargin \leftmargini \topsep 9\p@ plus3\p@ minus5\p@ \parsep 4.5\p@ plus2\p@ minus\p@ \itemsep \parsep }\belowdisplayskip \abovedisplayskip Overall stress-strain behavior of Ti-6242S specimens from experiments and the calibrated DD-EHM model.\relax }}{21}}
\newlabel{DD-EHMvsExp}{{15}{21}}
\@writefile{lot}{\contentsline {table}{\numberline {2}{\ignorespaces \relax \fontsize  {10.95}{13.6}\selectfont  \abovedisplayskip 11\p@ plus3\p@ minus6\p@ \abovedisplayshortskip \z@ plus3\p@ \belowdisplayshortskip 6.5\p@ plus3.5\p@ minus3\p@ \def \leftmargin \leftmargini \topsep 9\p@ plus3\p@ minus5\p@ \parsep 4.5\p@ plus2\p@ minus\p@ \itemsep \parsep {\leftmargin \leftmargini \topsep 9\p@ plus3\p@ minus5\p@ \parsep 4.5\p@ plus2\p@ minus\p@ \itemsep \parsep }\belowdisplayskip \abovedisplayskip Chemical composition in weight \% of Ti-6242S\nobreakspace  {}\citep  {Gockel2016}.\relax }}{21}}
\newlabel{Chemical}{{2}{21}}
\@writefile{lot}{\contentsline {table}{\numberline {3}{\ignorespaces \relax \fontsize  {10.95}{13.6}\selectfont  \abovedisplayskip 11\p@ plus3\p@ minus6\p@ \abovedisplayshortskip \z@ plus3\p@ \belowdisplayshortskip 6.5\p@ plus3.5\p@ minus3\p@ \def \leftmargin \leftmargini \topsep 9\p@ plus3\p@ minus5\p@ \parsep 4.5\p@ plus2\p@ minus\p@ \itemsep \parsep {\leftmargin \leftmargini \topsep 9\p@ plus3\p@ minus5\p@ \parsep 4.5\p@ plus2\p@ minus\p@ \itemsep \parsep }\belowdisplayskip \abovedisplayskip Calibrated model parameters for Ti-6242S\relax }}{21}}
\newlabel{CpehmPara}{{3}{21}}
\citation{Sinha2006}
\citation{Pilchak2011}
\citation{Sinha2006,Sinha2007,Sinha2017}
\citation{Pilchak2013,Pilchak2016}
\@writefile{lof}{\contentsline {figure}{\numberline {16}{\ignorespaces \relax \fontsize  {10.95}{13.6}\selectfont  \abovedisplayskip 11\p@ plus3\p@ minus6\p@ \abovedisplayshortskip \z@ plus3\p@ \belowdisplayshortskip 6.5\p@ plus3.5\p@ minus3\p@ \def \leftmargin \leftmargini \parsep 5\p@ plus2.5\p@ minus\p@ \topsep 10\p@ plus4\p@ minus6\p@ \itemsep 5\p@ plus2.5\p@ minus\p@ {\leftmargin \leftmargini \topsep 9\p@ plus3\p@ minus5\p@ \parsep 4.5\p@ plus2\p@ minus\p@ \itemsep \parsep }\belowdisplayskip \abovedisplayskip Local stress distribution as a function of RVE size: (a) DD-EHM model; (b) CPFEM model for RVEs with (c) 56 grains; (d) 97 grains; (e) 145 grains; (f) 245 grains; (g) 302 grains; and (h) 335 grains.\relax }}{22}}
\newlabel{RVEsize}{{16}{22}}
\@writefile{toc}{\contentsline {section}{\numberline {4}Crack initiation analysis and discussion}{22}}
\citation{Geathers2015,Sinha2017}
\citation{Sinha2017}
\citation{Sinha2017}
\citation{Sinha2017}
\citation{Sinha2006,Pilchak2013}
\@writefile{lof}{\contentsline {figure}{\numberline {17}{\ignorespaces \relax \fontsize  {10.95}{13.6}\selectfont  \abovedisplayskip 11\p@ plus3\p@ minus6\p@ \abovedisplayshortskip \z@ plus3\p@ \belowdisplayshortskip 6.5\p@ plus3.5\p@ minus3\p@ \def \leftmargin \leftmargini \parsep 5\p@ plus2.5\p@ minus\p@ \topsep 10\p@ plus4\p@ minus6\p@ \itemsep 5\p@ plus2.5\p@ minus\p@ {\leftmargin \leftmargini \topsep 9\p@ plus3\p@ minus5\p@ \parsep 4.5\p@ plus2\p@ minus\p@ \itemsep \parsep }\belowdisplayskip \abovedisplayskip Serrated features on crack facet: (a) experimental observation of basal slip in crack initiation region (Reproduced from\nobreakspace  {}\citet  {Sinha2017} with permission from the Springer Nature); (b) schematic dislocation slip and pile-ups on the crack facet normal.\relax }}{23}}
\newlabel{Schem2}{{17}{23}}
\@writefile{lof}{\contentsline {figure}{\numberline {18}{\ignorespaces \relax \fontsize  {10.95}{13.6}\selectfont  \abovedisplayskip 11\p@ plus3\p@ minus6\p@ \abovedisplayshortskip \z@ plus3\p@ \belowdisplayshortskip 6.5\p@ plus3.5\p@ minus3\p@ \def \leftmargin \leftmargini \parsep 5\p@ plus2.5\p@ minus\p@ \topsep 10\p@ plus4\p@ minus6\p@ \itemsep 5\p@ plus2.5\p@ minus\p@ {\leftmargin \leftmargini \topsep 9\p@ plus3\p@ minus5\p@ \parsep 4.5\p@ plus2\p@ minus\p@ \itemsep \parsep }\belowdisplayskip \abovedisplayskip Schematic explanation of crack initiation mechanism. (a) crack initiation occurs at the intersection between soft and hard grain; (b) dislocation pile-ups at the grain boundary triggers nucleation inside hard grain.\relax }}{24}}
\newlabel{Schem1}{{18}{24}}
\@writefile{toc}{\contentsline {subsection}{\numberline {4.1}Parametric investigations on grain pairs}{24}}
\@writefile{lot}{\contentsline {table}{\numberline {4}{\ignorespaces \relax \fontsize  {10.95}{13.6}\selectfont  \abovedisplayskip 11\p@ plus3\p@ minus6\p@ \abovedisplayshortskip \z@ plus3\p@ \belowdisplayshortskip 6.5\p@ plus3.5\p@ minus3\p@ \def \leftmargin \leftmargini \topsep 9\p@ plus3\p@ minus5\p@ \parsep 4.5\p@ plus2\p@ minus\p@ \itemsep \parsep {\leftmargin \leftmargini \topsep 9\p@ plus3\p@ minus5\p@ \parsep 4.5\p@ plus2\p@ minus\p@ \itemsep \parsep }\belowdisplayskip \abovedisplayskip Kocks angles for the two grain setup.\relax }}{24}}
\newlabel{Kocks}{{4}{24}}
\@writefile{lof}{\contentsline {figure}{\numberline {19}{\ignorespaces \relax \fontsize  {10.95}{13.6}\selectfont  \abovedisplayskip 11\p@ plus3\p@ minus6\p@ \abovedisplayshortskip \z@ plus3\p@ \belowdisplayshortskip 6.5\p@ plus3.5\p@ minus3\p@ \def \leftmargin \leftmargini \parsep 5\p@ plus2.5\p@ minus\p@ \topsep 10\p@ plus4\p@ minus6\p@ \itemsep 5\p@ plus2.5\p@ minus\p@ {\leftmargin \leftmargini \topsep 9\p@ plus3\p@ minus5\p@ \parsep 4.5\p@ plus2\p@ minus\p@ \itemsep \parsep }\belowdisplayskip \abovedisplayskip Two grains in (a) parallel and (b) serial configurations subjected to: (c) pure fatigue and (d) dwell fatigue loading.\relax }}{26}}
\newlabel{Grainpair1}{{19}{26}}
\@writefile{lof}{\contentsline {figure}{\numberline {20}{\ignorespaces \relax \fontsize  {10.95}{13.6}\selectfont  \abovedisplayskip 11\p@ plus3\p@ minus6\p@ \abovedisplayshortskip \z@ plus3\p@ \belowdisplayshortskip 6.5\p@ plus3.5\p@ minus3\p@ \def \leftmargin \leftmargini \parsep 5\p@ plus2.5\p@ minus\p@ \topsep 10\p@ plus4\p@ minus6\p@ \itemsep 5\p@ plus2.5\p@ minus\p@ {\leftmargin \leftmargini \topsep 9\p@ plus3\p@ minus5\p@ \parsep 4.5\p@ plus2\p@ minus\p@ \itemsep \parsep }\belowdisplayskip \abovedisplayskip The Von Mises stress evolution curves in the parallel hard-soft grain pair. The corresponding Kocks angles of soft grain are: (a) $\Theta =10^{\circ }$, $\phi =90^{\circ }$; (b) $\Theta =10^{\circ }$, $\phi =180^{\circ }$; (c) $\Theta =90^{\circ }$, $\phi =180^{\circ }$; (d) $\Theta =53^{\circ }$, $\phi =180^{\circ }$.\relax }}{26}}
\newlabel{ST-P}{{20}{26}}
\@writefile{lof}{\contentsline {figure}{\numberline {21}{\ignorespaces \relax \fontsize  {10.95}{13.6}\selectfont  \abovedisplayskip 11\p@ plus3\p@ minus6\p@ \abovedisplayshortskip \z@ plus3\p@ \belowdisplayshortskip 6.5\p@ plus3.5\p@ minus3\p@ \def \leftmargin \leftmargini \parsep 5\p@ plus2.5\p@ minus\p@ \topsep 10\p@ plus4\p@ minus6\p@ \itemsep 5\p@ plus2.5\p@ minus\p@ {\leftmargin \leftmargini \topsep 9\p@ plus3\p@ minus5\p@ \parsep 4.5\p@ plus2\p@ minus\p@ \itemsep \parsep }\belowdisplayskip \abovedisplayskip The Von Mises stress evolution curves in the serial hard-soft grain pair. The corresponding Kocks angles of soft grain are: (a) $\Theta =10^{\circ }$, $\phi =90^{\circ }$; (b) $\Theta =10^{\circ }$, $\phi =180^{\circ }$; (c) $\Theta =90^{\circ }$, $\phi =180^{\circ }$; (d) $\Theta =53^{\circ }$, $\phi =180^{\circ }$.\relax }}{27}}
\newlabel{ST-S}{{21}{27}}
\@writefile{lof}{\contentsline {figure}{\numberline {22}{\ignorespaces \relax \fontsize  {10.95}{13.6}\selectfont  \abovedisplayskip 11\p@ plus3\p@ minus6\p@ \abovedisplayshortskip \z@ plus3\p@ \belowdisplayshortskip 6.5\p@ plus3.5\p@ minus3\p@ \def \leftmargin \leftmargini \parsep 5\p@ plus2.5\p@ minus\p@ \topsep 10\p@ plus4\p@ minus6\p@ \itemsep 5\p@ plus2.5\p@ minus\p@ {\leftmargin \leftmargini \topsep 9\p@ plus3\p@ minus5\p@ \parsep 4.5\p@ plus2\p@ minus\p@ \itemsep \parsep }\belowdisplayskip \abovedisplayskip (a) Von Mises stress evolution in the soft grain as a function of $\beta $ in parallel configuration; (b) orientation dependency of Von Mises stress deviation $\Delta \sigma $ at $t=2.5$s.\relax }}{27}}
\newlabel{Orient-Mises}{{22}{27}}
\@writefile{lof}{\contentsline {figure}{\numberline {23}{\ignorespaces \relax \fontsize  {10.95}{13.6}\selectfont  \abovedisplayskip 11\p@ plus3\p@ minus6\p@ \abovedisplayshortskip \z@ plus3\p@ \belowdisplayshortskip 6.5\p@ plus3.5\p@ minus3\p@ \def \leftmargin \leftmargini \parsep 5\p@ plus2.5\p@ minus\p@ \topsep 10\p@ plus4\p@ minus6\p@ \itemsep 5\p@ plus2.5\p@ minus\p@ {\leftmargin \leftmargini \topsep 9\p@ plus3\p@ minus5\p@ \parsep 4.5\p@ plus2\p@ minus\p@ \itemsep \parsep }\belowdisplayskip \abovedisplayskip The Von Mises stress evolution curves in the hard-soft grain pair of 4 parts. The corresponding Kocks angles of soft grain are: (a) $\Theta =10^{\circ }$, $\phi =90^{\circ }$; (b) $\Theta =10^{\circ }$, $\phi =180^{\circ }$; (c) $\Theta =90^{\circ }$, $\phi =180^{\circ }$; (d) $\Theta =53^{\circ }$, $\phi =180^{\circ }$.\relax }}{28}}
\newlabel{ST-P-4}{{23}{28}}
\newlabel{ptot}{{19}{28}}
\@writefile{lof}{\contentsline {figure}{\numberline {24}{\ignorespaces \relax \fontsize  {10.95}{13.6}\selectfont  \abovedisplayskip 11\p@ plus3\p@ minus6\p@ \abovedisplayshortskip \z@ plus3\p@ \belowdisplayshortskip 6.5\p@ plus3.5\p@ minus3\p@ \def \leftmargin \leftmargini \parsep 5\p@ plus2.5\p@ minus\p@ \topsep 10\p@ plus4\p@ minus6\p@ \itemsep 5\p@ plus2.5\p@ minus\p@ {\leftmargin \leftmargini \topsep 9\p@ plus3\p@ minus5\p@ \parsep 4.5\p@ plus2\p@ minus\p@ \itemsep \parsep }\belowdisplayskip \abovedisplayskip Von Mises stress contours in the parallel configuration: (a) 2-part model (b) 4-part model.\relax }}{29}}
\newlabel{Compare-2-4}{{24}{29}}
\@writefile{lof}{\contentsline {figure}{\numberline {25}{\ignorespaces \relax \fontsize  {10.95}{13.6}\selectfont  \abovedisplayskip 11\p@ plus3\p@ minus6\p@ \abovedisplayshortskip \z@ plus3\p@ \belowdisplayshortskip 6.5\p@ plus3.5\p@ minus3\p@ \def \leftmargin \leftmargini \parsep 5\p@ plus2.5\p@ minus\p@ \topsep 10\p@ plus4\p@ minus6\p@ \itemsep 5\p@ plus2.5\p@ minus\p@ {\leftmargin \leftmargini \topsep 9\p@ plus3\p@ minus5\p@ \parsep 4.5\p@ plus2\p@ minus\p@ \itemsep \parsep }\belowdisplayskip \abovedisplayskip Von Mises stress comparison in the soft grain in parallel configuration for the 2-part and 4-part models: (a) $\beta =53$\textdegree {}; (b) $\beta =10$\textdegree {}\relax }}{29}}
\newlabel{Comp-2-4}{{25}{29}}
\citation{Pilchak2013}
\citation{Pilchak2011}
\citation{Pilchak2013}
\citation{Pilchak2011}
\citation{Pilchak2011}
\citation{Pilchak2011}
\citation{Pilchak2011,Sinha2017}
\@writefile{lof}{\contentsline {figure}{\numberline {26}{\ignorespaces \relax \fontsize  {10.95}{13.6}\selectfont  \abovedisplayskip 11\p@ plus3\p@ minus6\p@ \abovedisplayshortskip \z@ plus3\p@ \belowdisplayshortskip 6.5\p@ plus3.5\p@ minus3\p@ \def \leftmargin \leftmargini \parsep 5\p@ plus2.5\p@ minus\p@ \topsep 10\p@ plus4\p@ minus6\p@ \itemsep 5\p@ plus2.5\p@ minus\p@ {\leftmargin \leftmargini \topsep 9\p@ plus3\p@ minus5\p@ \parsep 4.5\p@ plus2\p@ minus\p@ \itemsep \parsep }\belowdisplayskip \abovedisplayskip Variations as a function of misorientation angles: (a) Basal normal stress at the end of cycle; (b) $\rho _{\text  {tot}}$ at the end of the cycle; (c) Under strain control, $\rho _{\text  {tot}}$ at the end of the dwell and pure fatigue cycle compared with experimental observations in\nobreakspace  {}\citet  {Pilchak2011}; (d) Under stress control, $\rho _{\text  {tot}}$ at the end of the pure fatigue cycle.\relax }}{31}}
\newlabel{Metric-2-4}{{26}{31}}
\newlabel{Dev-pris}{{20}{31}}
\newlabel{Dev-pyram}{{21}{31}}
\citation{Pilchak2013,Pilchak2016}
\newlabel{ptot_revise}{{22}{32}}
\@writefile{lof}{\contentsline {figure}{\numberline {27}{\ignorespaces \relax \fontsize  {10.95}{13.6}\selectfont  \abovedisplayskip 11\p@ plus3\p@ minus6\p@ \abovedisplayshortskip \z@ plus3\p@ \belowdisplayshortskip 6.5\p@ plus3.5\p@ minus3\p@ \def \leftmargin \leftmargini \parsep 5\p@ plus2.5\p@ minus\p@ \topsep 10\p@ plus4\p@ minus6\p@ \itemsep 5\p@ plus2.5\p@ minus\p@ {\leftmargin \leftmargini \topsep 9\p@ plus3\p@ minus5\p@ \parsep 4.5\p@ plus2\p@ minus\p@ \itemsep \parsep }\belowdisplayskip \abovedisplayskip Prismatic and pyramidal dislocation activation in the soft grain for parallel configuration. (a) total activated dislocation density in different slip systems at the end of the pure fatigue cycle; (b) the main activated slip plane (pink plane) in prismatic and pyramidal slip systems and the schematic configuration with deviated angle (after the yellow arrow); (b) the dislocation density at deviated angles ranging in $[0^\circ , 90^\circ ]$ for prismatic configuration; (c) the dislocation densities for pyramidal configuration.\relax }}{32}}
\newlabel{Pris+Pyram}{{27}{32}}
\@writefile{toc}{\contentsline {subsubsection}{\numberline {4.1.1}Strain and stress controlled bicrystal analysis}{32}}
\@writefile{toc}{\contentsline {subsubsection}{\numberline {4.1.2}Effect of grain boundary orientation}{33}}
\@writefile{lof}{\contentsline {figure}{\numberline {28}{\ignorespaces \relax \fontsize  {10.95}{13.6}\selectfont  \abovedisplayskip 11\p@ plus3\p@ minus6\p@ \abovedisplayshortskip \z@ plus3\p@ \belowdisplayshortskip 6.5\p@ plus3.5\p@ minus3\p@ \def \leftmargin \leftmargini \parsep 5\p@ plus2.5\p@ minus\p@ \topsep 10\p@ plus4\p@ minus6\p@ \itemsep 5\p@ plus2.5\p@ minus\p@ {\leftmargin \leftmargini \topsep 9\p@ plus3\p@ minus5\p@ \parsep 4.5\p@ plus2\p@ minus\p@ \itemsep \parsep }\belowdisplayskip \abovedisplayskip (a) Stress and strain controlled fatigue load cycles; (b) bi-crystal configurations in strain and stress control.\relax }}{34}}
\newlabel{Full-Setup}{{28}{34}}
\@writefile{lof}{\contentsline {figure}{\numberline {29}{\ignorespaces \relax \fontsize  {10.95}{13.6}\selectfont  \abovedisplayskip 11\p@ plus3\p@ minus6\p@ \abovedisplayshortskip \z@ plus3\p@ \belowdisplayshortskip 6.5\p@ plus3.5\p@ minus3\p@ \def \leftmargin \leftmargini \parsep 5\p@ plus2.5\p@ minus\p@ \topsep 10\p@ plus4\p@ minus6\p@ \itemsep 5\p@ plus2.5\p@ minus\p@ {\leftmargin \leftmargini \topsep 9\p@ plus3\p@ minus5\p@ \parsep 4.5\p@ plus2\p@ minus\p@ \itemsep \parsep }\belowdisplayskip \abovedisplayskip Variation of $\rho _{\text  {tot}}$ in the bicrystal subjected to: $\beta $ for bi-crystal combination: (a) strain control; (b) stress control.\relax }}{34}}
\newlabel{Com-sig-epi2}{{29}{34}}
\@writefile{lof}{\contentsline {figure}{\numberline {30}{\ignorespaces \relax \fontsize  {10.95}{13.6}\selectfont  \abovedisplayskip 11\p@ plus3\p@ minus6\p@ \abovedisplayshortskip \z@ plus3\p@ \belowdisplayshortskip 6.5\p@ plus3.5\p@ minus3\p@ \def \leftmargin \leftmargini \parsep 5\p@ plus2.5\p@ minus\p@ \topsep 10\p@ plus4\p@ minus6\p@ \itemsep 5\p@ plus2.5\p@ minus\p@ {\leftmargin \leftmargini \topsep 9\p@ plus3\p@ minus5\p@ \parsep 4.5\p@ plus2\p@ minus\p@ \itemsep \parsep }\belowdisplayskip \abovedisplayskip The grain boundary orientation study: (a) Grain boundary angle $\omega $ setup with hard grain ($\beta =0^\circ $) and soft grain($\beta =27^\circ $); (b) Von Mises stress evolution in the soft grain; (c) Total activated dislocation density portion as a function of the grain boundary angle $\omega $.\relax }}{35}}
\newlabel{GBorient1}{{30}{35}}
\citation{Dunne2007a}
\citation{Dunne2007a}
\citation{Dunne2007}
\@writefile{lof}{\contentsline {figure}{\numberline {31}{\ignorespaces \relax \fontsize  {10.95}{13.6}\selectfont  \abovedisplayskip 11\p@ plus3\p@ minus6\p@ \abovedisplayshortskip \z@ plus3\p@ \belowdisplayshortskip 6.5\p@ plus3.5\p@ minus3\p@ \def \leftmargin \leftmargini \parsep 5\p@ plus2.5\p@ minus\p@ \topsep 10\p@ plus4\p@ minus6\p@ \itemsep 5\p@ plus2.5\p@ minus\p@ {\leftmargin \leftmargini \topsep 9\p@ plus3\p@ minus5\p@ \parsep 4.5\p@ plus2\p@ minus\p@ \itemsep \parsep }\belowdisplayskip \abovedisplayskip The deviation angle study with fixed grain boundary orientation: (a) Deviation angle $\beta $ changes with grain boundary inclination $\omega =27^\circ $ and hard grain $\beta =0^\circ $; (b) Mises stress evolution in the soft grain; (c) Total activated dislocation density portion as a function of the grain boundary angle $\omega $.\relax }}{36}}
\newlabel{GBorient2}{{31}{36}}
\citation{Dunne2007}
\citation{Dunne2007}
\citation{Ashton2017,Pilchak2016,Venkataramani2008}
\citation{Mayeur2007,Ashton2017}
\@writefile{lof}{\contentsline {figure}{\numberline {32}{\ignorespaces \relax \fontsize  {10.95}{13.6}\selectfont  \abovedisplayskip 11\p@ plus3\p@ minus6\p@ \abovedisplayshortskip \z@ plus3\p@ \belowdisplayshortskip 6.5\p@ plus3.5\p@ minus3\p@ \def \leftmargin \leftmargini \parsep 5\p@ plus2.5\p@ minus\p@ \topsep 10\p@ plus4\p@ minus6\p@ \itemsep 5\p@ plus2.5\p@ minus\p@ {\leftmargin \leftmargini \topsep 9\p@ plus3\p@ minus5\p@ \parsep 4.5\p@ plus2\p@ minus\p@ \itemsep \parsep }\belowdisplayskip \abovedisplayskip The grain boundary orientation study: (a) Angle $\omega $ setup with two hard grains ($\beta =0^\circ $ and $\beta =90^\circ $); (b) Peak accumulation slip evolution in hard grain ($90^\circ $) at different boundary angles (reconstructed figure from\nobreakspace  {}\citep  {Dunne2007}); (c) Total activated dislocation density portion in hard grain ($90^\circ $) at different $\omega $ configurations.\relax }}{37}}
\newlabel{GBorient3}{{32}{37}}
\@writefile{toc}{\contentsline {subsubsection}{\numberline {4.1.3}Effect of $\beta $ laths}{37}}
\citation{Ashton2017}
\@writefile{lof}{\contentsline {figure}{\numberline {33}{\ignorespaces \relax \fontsize  {10.95}{13.6}\selectfont  \abovedisplayskip 11\p@ plus3\p@ minus6\p@ \abovedisplayshortskip \z@ plus3\p@ \belowdisplayshortskip 6.5\p@ plus3.5\p@ minus3\p@ \def \leftmargin \leftmargini \parsep 5\p@ plus2.5\p@ minus\p@ \topsep 10\p@ plus4\p@ minus6\p@ \itemsep 5\p@ plus2.5\p@ minus\p@ {\leftmargin \leftmargini \topsep 9\p@ plus3\p@ minus5\p@ \parsep 4.5\p@ plus2\p@ minus\p@ \itemsep \parsep }\belowdisplayskip \abovedisplayskip The beta phase study based on Burgers orientation relationship (BOR): (a) BOR in the colony lath structure; (b) Three $\beta $ lath width investigated for crack initiation.\relax }}{38}}
\newlabel{Betaconfig}{{33}{38}}
\@writefile{lof}{\contentsline {figure}{\numberline {34}{\ignorespaces \relax \fontsize  {10.95}{13.6}\selectfont  \abovedisplayskip 11\p@ plus3\p@ minus6\p@ \abovedisplayshortskip \z@ plus3\p@ \belowdisplayshortskip 6.5\p@ plus3.5\p@ minus3\p@ \def \leftmargin \leftmargini \parsep 5\p@ plus2.5\p@ minus\p@ \topsep 10\p@ plus4\p@ minus6\p@ \itemsep 5\p@ plus2.5\p@ minus\p@ {\leftmargin \leftmargini \topsep 9\p@ plus3\p@ minus5\p@ \parsep 4.5\p@ plus2\p@ minus\p@ \itemsep \parsep }\belowdisplayskip \abovedisplayskip Evolution of $\sigma _{22}$ evolution in DD-EHM: (a) 10 \% $\beta $ phase; (b) 5 \% $\beta $ phase; (c) 1 \% $\beta $ phase; (d) overall $\sigma _{22}$ evolution in three $\beta $ volume fractions.\relax }}{39}}
\newlabel{sigma22beta}{{34}{39}}
\@writefile{lof}{\contentsline {figure}{\numberline {35}{\ignorespaces \relax \fontsize  {10.95}{13.6}\selectfont  \abovedisplayskip 11\p@ plus3\p@ minus6\p@ \abovedisplayshortskip \z@ plus3\p@ \belowdisplayshortskip 6.5\p@ plus3.5\p@ minus3\p@ \def \leftmargin \leftmargini \parsep 5\p@ plus2.5\p@ minus\p@ \topsep 10\p@ plus4\p@ minus6\p@ \itemsep 5\p@ plus2.5\p@ minus\p@ {\leftmargin \leftmargini \topsep 9\p@ plus3\p@ minus5\p@ \parsep 4.5\p@ plus2\p@ minus\p@ \itemsep \parsep }\belowdisplayskip \abovedisplayskip Orientation dependency with 10 \% $\beta $ phase: (a) The loading direction is perpendicular to three different planes in the $\beta $ lattice; (b) stress $\sigma _{22}$ evolution along corresponding orientations.\relax }}{40}}
\newlabel{OrientBeta}{{35}{40}}
\@writefile{toc}{\contentsline {section}{\numberline {5}Structural simulations}{40}}
\@writefile{lof}{\contentsline {figure}{\numberline {36}{\ignorespaces \relax \fontsize  {10.95}{13.6}\selectfont  \abovedisplayskip 11\p@ plus3\p@ minus6\p@ \abovedisplayshortskip \z@ plus3\p@ \belowdisplayshortskip 6.5\p@ plus3.5\p@ minus3\p@ \def \leftmargin \leftmargini \parsep 5\p@ plus2.5\p@ minus\p@ \topsep 10\p@ plus4\p@ minus6\p@ \itemsep 5\p@ plus2.5\p@ minus\p@ {\leftmargin \leftmargini \topsep 9\p@ plus3\p@ minus5\p@ \parsep 4.5\p@ plus2\p@ minus\p@ \itemsep \parsep }\belowdisplayskip \abovedisplayskip Simulation setups with: (a) $\beta $ phase orientation fixed with (111) loading plane and $\alpha $ rotate by Z axis; (b) $\beta $ phase orientation fixed with (111) loading plane and $\alpha $ rotate by Z axis; (c) dislocation density evolution as a function of angle $\theta _{1}$; (d) dislocation density evolution as a function of angle $\theta _{2}$.\relax }}{41}}
\newlabel{OrientBeta-1}{{36}{41}}
\@writefile{lof}{\contentsline {figure}{\numberline {37}{\ignorespaces \relax \fontsize  {10.95}{13.6}\selectfont  \abovedisplayskip 11\p@ plus3\p@ minus6\p@ \abovedisplayshortskip \z@ plus3\p@ \belowdisplayshortskip 6.5\p@ plus3.5\p@ minus3\p@ \def \leftmargin \leftmargini \parsep 5\p@ plus2.5\p@ minus\p@ \topsep 10\p@ plus4\p@ minus6\p@ \itemsep 5\p@ plus2.5\p@ minus\p@ {\leftmargin \leftmargini \topsep 9\p@ plus3\p@ minus5\p@ \parsep 4.5\p@ plus2\p@ minus\p@ \itemsep \parsep }\belowdisplayskip \abovedisplayskip A L-shape plate of Ti-6242S under strain controlled cyclic loading: (a) geometry and loading condition of the plate; (b) finite element mesh; (c) strain-controlled loading history\relax }}{42}}
\newlabel{structure-geo}{{37}{42}}
\@writefile{lof}{\contentsline {figure}{\numberline {38}{\ignorespaces \relax \fontsize  {10.95}{13.6}\selectfont  \abovedisplayskip 11\p@ plus3\p@ minus6\p@ \abovedisplayshortskip \z@ plus3\p@ \belowdisplayshortskip 6.5\p@ plus3.5\p@ minus3\p@ \def \leftmargin \leftmargini \parsep 5\p@ plus2.5\p@ minus\p@ \topsep 10\p@ plus4\p@ minus6\p@ \itemsep 5\p@ plus2.5\p@ minus\p@ {\leftmargin \leftmargini \topsep 9\p@ plus3\p@ minus5\p@ \parsep 4.5\p@ plus2\p@ minus\p@ \itemsep \parsep }\belowdisplayskip \abovedisplayskip Schematic illustration of capturing crack initiation site: (a) extract $\qopname  \relax m{max}\limits _{s\in \{1,...,n\}}(\Delta \rho _{\text  {tot}}^{s,ij})$ in $i$th grain of $j$th microstructure from macroscopic dislocation density distribution; (b) identify neighboring grains according to adjacent nodes; (c) potential crack interface.\relax }}{43}}
\newlabel{structure-all}{{38}{43}}
\@writefile{lof}{\contentsline {figure}{\numberline {39}{\ignorespaces \relax \fontsize  {10.95}{13.6}\selectfont  \abovedisplayskip 11\p@ plus3\p@ minus6\p@ \abovedisplayshortskip \z@ plus3\p@ \belowdisplayshortskip 6.5\p@ plus3.5\p@ minus3\p@ \def \leftmargin \leftmargini \parsep 5\p@ plus2.5\p@ minus\p@ \topsep 10\p@ plus4\p@ minus6\p@ \itemsep 5\p@ plus2.5\p@ minus\p@ {\leftmargin \leftmargini \topsep 9\p@ plus3\p@ minus5\p@ \parsep 4.5\p@ plus2\p@ minus\p@ \itemsep \parsep }\belowdisplayskip \abovedisplayskip $\Delta \rho _\text  {tot}$ distribution at different time steps in: (a) position 1; (b) position 2; (c) position 3.\relax }}{43}}
\newlabel{DD-three}{{39}{43}}
\citation{Dunne2007}
\citation{Gockel2016}
\@writefile{toc}{\contentsline {section}{\numberline {6}Conclusion}{44}}
\@writefile{toc}{\contentsline {section}{\numberline {7}Acknowledgments}{44}}
\bibstyle{apa}
\bibdata{Yang_Zhang_Oskay.bib}
\bibcite{Anahid2013}{{1}{2013}{{Anahid and Ghosh}}{{}}}
\bibcite{Anahid2011}{{2}{2011}{{Anahid et~al.}}{{}}}
\bibcite{Appel1997}{{3}{1997}{{Appel et~al.}}{{}}}
\bibcite{Ardeljan2014}{{4}{2014}{{Ardeljan et~al.}}{{}}}
\bibcite{Ashton2017}{{5}{2017}{{Ashton et~al.}}{{}}}
\bibcite{Bantounas2010}{{6}{2010}{{Bantounas et~al.}}{{}}}
\bibcite{Beyerlein2008}{{7}{2008}{{Beyerlein and Tom{\'e}}}{{}}}
\bibcite{Castelluccio2016}{{8}{2016}{{Castelluccio et~al.}}{{}}}
\bibcite{Deka2006}{{9}{2006}{{Deka et~al.}}{{}}}
\bibcite{Dunne2007}{{10}{2007a}{{Dunne et~al.}}{{}}}
\bibcite{Dunne2007a}{{11}{2007b}{{Dunne et~al.}}{{}}}
\@writefile{toc}{\contentsline {section}{References}{45}}
\bibcite{E:2003a}{{12}{2003}{{E et~al.}}{{}}}
\bibcite{Efendiev:2009a}{{13}{2009}{{Efendiev and Hou}}{{}}}
\bibcite{Fan2011}{{14}{2011}{{Fan and Yang}}{{}}}
\bibcite{Feyel:2000a}{{15}{2000}{{Feyel and Chaboche}}{{}}}
\bibcite{Follansbee1989}{{16}{1989}{{Follansbee and Gray}}{{}}}
\bibcite{Geathers2015}{{17}{2015}{{Geathers et~al.}}{{}}}
\bibcite{Ghosh2013}{{18}{2013}{{Ghosh and Anahid}}{{}}}
\bibcite{Ghosh2011}{{19}{2011}{{Ghosh et~al.}}{{}}}
\bibcite{Gockel2016}{{20}{2016}{{Gockel et~al.}}{{}}}
\bibcite{Hu2016}{{21}{2016}{{Hu et~al.}}{{}}}
\bibcite{Huang2013}{{22}{2013}{{Huang et~al.}}{{}}}
\bibcite{Joseph2018}{{23}{2018}{{Joseph et~al.}}{{}}}
\bibcite{Kartal2014}{{24}{2014}{{Kartal et~al.}}{{}}}
\bibcite{Kelley1968}{{25}{1968}{{Kelley and Hosford}}{{}}}
\bibcite{Kirane2008}{{26}{2008}{{Kirane and Ghosh}}{{}}}
\bibcite{Kirane2009}{{27}{2009}{{Kirane et~al.}}{{}}}
\bibcite{Kitayama2013}{{28}{2013}{{Kitayama et~al.}}{{}}}
\bibcite{Knezevic2016}{{29}{2016}{{Knezevic et~al.}}{{}}}
\bibcite{Knezevic2013a}{{30}{2013a}{{Knezevic et~al.}}{{}}}
\bibcite{Knezevic2013}{{31}{2013b}{{Knezevic et~al.}}{{}}}
\bibcite{Lebensohn2012a}{{32}{2012}{{Lebensohn et~al.}}{{}}}
\bibcite{Lebensohn2001a}{{33}{2001}{{Lebensohn}}{{}}}
\bibcite{Liu2018}{{34}{2018}{{Liu et~al.}}{{}}}
\bibcite{Ma2018}{{35}{2018}{{Ma et~al.}}{{}}}
\bibcite{Madec2002}{{36}{2002}{{Madec et~al.}}{{}}}
\bibcite{Masud:2011a}{{37}{2011}{{Masud and Scovazzi}}{{}}}
\bibcite{Mayeur2007}{{38}{2007}{{Mayeur and McDowell}}{{}}}
\bibcite{Mcdowell2010}{{39}{2010}{{McDowell and Dunne}}{{}}}
\bibcite{Mecking1981}{{40}{1981}{{Mecking and Kocks}}{{}}}
\bibcite{Michel2003a}{{41}{2003}{{Michel and Suquet}}{{}}}
\bibcite{Michel2004a}{{42}{2004}{{Michel and Suquet}}{{}}}
\bibcite{Mosby:2016a}{{43}{2016}{{Mosby and Matous}}{{}}}
\bibcite{Naka1988}{{44}{1988}{{Naka et~al.}}{{}}}
\bibcite{Oskay:2012a}{{45}{2012}{{Oskay}}{{}}}
\bibcite{Oskay:2013b}{{46}{2013}{{Oskay}}{{}}}
\bibcite{Oskay2007}{{47}{2007}{{Oskay and Fish}}{{}}}
\bibcite{Ozturk2017}{{48}{2017}{{Ozturk et~al.}}{{}}}
\bibcite{Ozturk2016}{{49}{2016}{{Ozturk et~al.}}{{}}}
\bibcite{Pandey2015}{{50}{2015}{{Pandey et~al.}}{{}}}
\bibcite{Phan2017}{{51}{2017}{{Phan et~al.}}{{}}}
\bibcite{Pilchak2013}{{52}{2013}{{Pilchak}}{{}}}
\bibcite{Pilchak2014}{{53}{2014}{{Pilchak et~al.}}{{}}}
\bibcite{Pilchak2016}{{54}{2016}{{Pilchak et~al.}}{{}}}
\bibcite{Pilchak2011}{{55}{2011}{{Pilchak and Williams}}{{}}}
\bibcite{Przybyla2011}{{56}{2011}{{Przybyla and McDowell}}{{}}}
\bibcite{Satko2016}{{57}{2016}{{Satko et~al.}}{{}}}
\bibcite{Savage2004}{{58}{2004}{{Savage et~al.}}{{}}}
\bibcite{Shanthraj2015}{{59}{2015}{{Shanthraj et~al.}}{{}}}
\bibcite{Sinha2017}{{60}{2017}{{Sinha et~al.}}{{}}}
\bibcite{Sinha2006}{{61}{2006}{{Sinha et~al.}}{{}}}
\bibcite{Sinha2007}{{62}{2007}{{Sinha et~al.}}{{}}}
\bibcite{Smith2018}{{63}{2018}{{Smith et~al.}}{{}}}
\bibcite{Suri1999}{{64}{1999}{{Suri et~al.}}{{}}}
\bibcite{Szczepanski2008}{{65}{2008}{{Szczepanski et~al.}}{{}}}
\bibcite{VanHoutte2005}{{66}{2005}{{Van~Houtte et~al.}}{{}}}
\bibcite{Venkataramani2008}{{67}{2008}{{Venkataramani et~al.}}{{}}}
\bibcite{Venkatramani2007}{{68}{2007}{{Venkatramani et~al.}}{{}}}
\bibcite{Viguier1995}{{69}{1995}{{Viguier et~al.}}{{}}}
\bibcite{Williams1962}{{70}{1962}{{Williams and Schaal}}{{}}}
\bibcite{Zecevic2015}{{71}{2015}{{Zecevic and Knezevic}}{{}}}
\bibcite{Zhang:2015a}{{72}{2015a}{{Zhang and Oskay}}{{}}}
\bibcite{Zhang:2016a}{{73}{2016a}{{Zhang and Oskay}}{{}}}
\bibcite{Zhang:2017a}{{74}{2017a}{{Zhang and Oskay}}{{}}}
\bibcite{Zhang2015}{{75}{2015b}{{Zhang and Oskay}}{{}}}
\bibcite{Zhang2016b}{{76}{2016b}{{Zhang and Oskay}}{{}}}
\bibcite{Zhang2017}{{77}{2017b}{{Zhang and Oskay}}{{}}}
\bibcite{Zhang2016}{{78}{2016}{{Zhang et~al.}}{{}}}
\bibcite{Zheng2016}{{79}{2016}{{Zheng et~al.}}{{}}}
\bibcite{Zheng2018}{{80}{2018}{{Zheng et~al.}}{{}}}
